i2c_test/simulation/qsim/i2c_test.msim.vcd
$comment
	File created using the following command:
		vcd file i2c_test.msim.vcd -direction
$end
$date
	Mon Jun 04 17:47:14 2018
$end
$version
	ModelSim Version 10.1d
$end
$timescale
	1ps
$end
$scope module i2c_test_vlg_vec_tst $end
$var reg 1 ! clk $end
$var reg 1 " rst $end
$var reg 1 # treg_scl $end
$var reg 1 $ treg_sda $end
$var reg 1 % start_button $end
$var wire 1 & scl $end
$var wire 1 ' sda $end
$var wire 1 ( sampler $end
$scope module i1 $end
$var wire 1 ) gnd $end
$var wire 1 * vcc $end
$var wire 1 + unknown $end
$var tri1 1 , devclrn $end
$var tri1 1 - devpor $end
$var tri1 1 . devoe $end
$var wire 1 / sda~input_o $end
$var wire 1 0 scl~input_o $end
$var wire 1 1 ~QUARTUS_CREATED_GND~I_combout $end
$var wire 1 2 clk~input_o $end
$var wire 1 3 clk~inputCLKENA0_outclk $end
$var wire 1 4 start_button~input_o $end
$var wire 1 5 Add0~45_sumout $end
$var wire 1 6 rst~input_o $end
$var wire 1 7 pr_state.LoB~q $end
$var wire 1 8 i~2_combout $end
$var wire 1 9 i[2]~1_combout $end
$var wire 1 : i~3_combout $end
$var wire 1 ; Mux4~0_combout $end
$var wire 1 < Add0~26 $end
$var wire 1 = Add0~1_sumout $end
$var wire 1 > t[11]~0_combout $end
$var wire 1 ? LessThan0~0_combout $end
$var wire 1 @ LessThan0~1_combout $end
$var wire 1 A LessThan1~0_combout $end
$var wire 1 B LessThan1~2_combout $end
$var wire 1 C Selector1~0_combout $end
$var wire 1 D nx_state.HiA_291~combout $end
$var wire 1 E pr_state.HiA~q $end
$var wire 1 F WideOr0~1_combout $end
$var wire 1 G t[11]~1_combout $end
$var wire 1 H t[11]~2_combout $end
$var wire 1 I Selector5~0_combout $end
$var wire 1 J nx_state.LoA_267~combout $end
$var wire 1 K pr_state.LoA~q $end
$var wire 1 L WideOr0~0_combout $end
$var wire 1 M WideOr0~combout $end
$var wire 1 N Add0~46 $end
$var wire 1 O Add0~41_sumout $end
$var wire 1 P Add0~42 $end
$var wire 1 Q Add0~21_sumout $end
$var wire 1 R Add0~22 $end
$var wire 1 S Add0~17_sumout $end
$var wire 1 T Add0~18 $end
$var wire 1 U Add0~13_sumout $end
$var wire 1 V Add0~14 $end
$var wire 1 W Add0~9_sumout $end
$var wire 1 X Add0~10 $end
$var wire 1 Y Add0~5_sumout $end
$var wire 1 Z Add0~6 $end
$var wire 1 [ Add0~37_sumout $end
$var wire 1 \ Add0~38 $end
$var wire 1 ] Add0~33_sumout $end
$var wire 1 ^ Add0~34 $end
$var wire 1 _ Add0~29_sumout $end
$var wire 1 ` Add0~30 $end
$var wire 1 a Add0~25_sumout $end
$var wire 1 b LessThan1~1_combout $end
$var wire 1 c Selector3~0_combout $end
$var wire 1 d nx_state.HiB_279~combout $end
$var wire 1 e pr_state.HiB~q $end
$var wire 1 f Selector9~0_combout $end
$var wire 1 g nx_state.Idle_303~combout $end
$var wire 1 h pr_state.Idle~0_combout $end
$var wire 1 i pr_state.Idle~q $end
$var wire 1 j Selector10~0_combout $end
$var wire 1 k Selector7~0_combout $end
$var wire 1 l nx_state.LoB_255~combout $end
$var wire 1 m i~0_combout $end
$var wire 1 n Selector12~0_combout $end
$var wire 1 o Selector12~1_combout $end
$var wire 1 p Selector17~0_combout $end
$var wire 1 q scl~2_combout $end
$var wire 1 r t [11] $end
$var wire 1 s t [10] $end
$var wire 1 t t [9] $end
$var wire 1 u t [8] $end
$var wire 1 v t [7] $end
$var wire 1 w t [6] $end
$var wire 1 x t [5] $end
$var wire 1 y t [4] $end
$var wire 1 z t [3] $end
$var wire 1 { t [2] $end
$var wire 1 | t [1] $end
$var wire 1 } t [0] $end
$var wire 1 ~ i [2] $end
$var wire 1 !! i [1] $end
$var wire 1 "! i [0] $end
$upscope $end
$upscope $end
$enddefinitions $end
#0
$dumpvars
0!
1"
z#
z$
1%
1&
1'
x(
0)
1*
x+
1,
1-
1.
1/
10
01
02
03
14
15
16
07
08
19
0:
0;
0<
0=
0>
0?
0@
0A
1B
0C
0D
0E
1F
0G
1H
0I
0J
0K
1L
0M
0N
0O
0P
0Q
0R
0S
0T
0U
0V
0W
0X
0Y
0Z
0[
0\
0]
0^
0_
0`
0a
1b
0c
0d
0e
1f
1g
0h
0i
1j
0k
0l
0m
0n
1o
1p
1q
0}
0|
0{
0z
0y
0x
0w
0v
0u
0t
0s
0r
0"!
0!!
0~
$end
#500
1!
12
13
0(
1}
1N
05
1O
#1000
0!
02
03
1(
#1500
1!
12
13
0(
1|
0}
1P
0O
0N
15
1Q
0P
1O
0Q
#2000
0!
02
03
1(
#2500
1!
12
13
0(
1}
1N
05
1P
0O
1Q
#3000
0!
02
03
1(
#3500
1!
12
13
0(
1{
0|
0}
1R
0Q
0P
1O
0N
15
1S
0R
1Q
0O
0S
#4000
0!
02
03
1(
#4500
1!
12
13
0(
1}
1N
05
1O
#5000
0!
02
03
1(
#5500
1!
12
13
0(
1|
0}
1P
0O
0N
15
1R
0Q
0P
1O
1S
0R
1Q
0S
#6000
0!
02
03
1(
#6500
1!
12
13
0(
1}
1N
05
1P
0O
1R
0Q
1S
#7000
0!
02
03
1(
#7500
1!
12
13
0(
1z
0{
0|
0}
1T
0S
0R
1Q
0P
1O
0N
15
1U
0T
1S
0Q
0O
0U
#8000
0!
02
03
1(
#8500
1!
12
13
0(
1}
1N
05
1O
#9000
0!
02
03
1(
#9500
1!
12
13
0(
1|
0}
1P
0O
0N
15
1Q
0P
1O
0Q
#10000
0!
02
03
1(
#10500
1!
12
13
0(
1}
1N
05
1P
0O
1Q
#11000
0!
02
03
1(
#11500
1!
12
13
0(
1{
0|
0}
1R
0Q
0P
1O
0N
15
1T
0S
0R
1Q
0O
1U
0T
1S
0U
#12000
0!
02
03
1(
#12500
1!
12
13
0(
1}
1N
05
1O
#13000
0!
02
03
1(
#13500
1!
12
13
0(
1|
0}
1P
0O
0N
15
1R
0Q
0P
1O
1T
0S
0R
1Q
1U
0T
1S
0U
#14000
0!
02
03
1(
#14500
1!
12
13
0(
1}
1N
05
1P
0O
1R
0Q
1T
0S
1U
#15000
0!
02
03
1(
#15500
1!
12
13
0(
1y
0z
0{
0|
0}
1V
0U
0T
1S
0R
1Q
0P
1O
0N
15
1W
0V
1U
0S
0Q
0O
0W
#16000
0!
02
03
1(
#16500
1!
12
13
0(
1}
1N
05
1O
#17000
0!
02
03
1(
#17500
1!
12
13
0(
1|
0}
1P
0O
0N
15
1Q
0P
1O
0Q
#18000
0!
02
03
1(
#18500
1!
12
13
0(
1}
1N
05
1P
0O
1Q
#19000
0!
02
03
1(
#19500
1!
12
13
0(
1{
0|
0}
1R
0Q
0P
1O
0N
15
1S
0R
1Q
0O
0S
#20000
0!
02
03
1(
#20500
1!
12
13
0(
1}
1N
05
1O
#21000
0!
02
03
1(
#21500
1!
12
13
0(
1|
0}
1P
0O
0N
15
1R
0Q
0P
1O
1S
0R
1Q
0S
#22000
0!
02
03
1(
#22500
1!
12
13
0(
1}
1N
05
1P
0O
1R
0Q
1S
#23000
0!
02
03
1(
#23500
1!
12
13
0(
1z
0{
0|
0}
1T
0S
0R
1Q
0P
1O
0N
15
1V
0U
0T
1S
0Q
0O
1W
0V
1U
0W
#24000
0!
02
03
1(
#24500
1!
12
13
0(
1}
1N
05
1O
#25000
0!
02
03
1(
#25500
1!
12
13
0(
1|
0}
1P
0O
0N
15
1Q
0P
1O
0Q
#26000
0!
02
03
1(
#26500
1!
12
13
0(
1}
1N
05
1P
0O
1Q
#27000
0!
02
03
1(
#27500
1!
12
13
0(
1{
0|
0}
1R
0Q
0P
1O
0N
15
1T
0S
0R
1Q
0O
1V
0U
0T
1S
1W
0V
1U
0W
#28000
0!
02
03
1(
#28500
1!
12
13
0(
1}
1N
05
1O
#29000
0!
02
03
1(
#29500
1!
12
13
0(
1|
0}
1P
0O
0N
15
1R
0Q
0P
1O
1T
0S
0R
1Q
1V
0U
0T
1S
1W
0V
1U
0W
#30000
0!
02
03
1(
#30500
1!
12
13
0(
1}
1N
05
1?
1P
0O
1R
0Q
1T
0S
1V
0U
1W
#31000
0!
02
03
1(
#31500
1!
12
13
0(
1x
0y
0z
0{
0|
0}
1G
1X
0W
0?
0V
1U
0T
1S
0R
1Q
0P
1O
0N
15
1Y
0X
1W
0U
0S
0Q
0O
0Y
#32000
0!
02
03
1(
#32500
1!
12
13
0(
1}
1N
05
1O
#33000
0!
02
03
1(
#33500
1!
12
13
0(
1|
0}
1P
0O
0N
15
1Q
0P
1O
0Q
#34000
0!
02
03
1(
#34500
1!
12
13
0(
1}
1N
05
1P
0O
1Q
#35000
0!
02
03
1(
#35500
1!
12
13
0(
1{
0|
0}
0G
1R
0Q
0P
1O
0N
15
1S
0R
1Q
0O
0S
#36000
0!
02
03
1(
#36500
1!
12
13
0(
1}
1N
05
1O
#37000
0!
02
03
1(
#37500
1!
12
13
0(
1|
0}
1P
0O
0N
15
1R
0Q
0P
1O
1S
0R
1Q
0S
#38000
0!
02
03
1(
#38500
1!
12
13
0(
1}
1N
05
1P
0O
1R
0Q
1S
#39000
0!
02
03
1(
#39500
1!
12
13
0(
1z
0{
0|
0}
1T
0S
0R
1Q
0P
1O
0N
15
1U
0T
1S
0Q
0O
0U
#40000
0!
02
03
1(
#40500
1!
12
13
0(
1}
1N
05
1O
#41000
0!
02
03
1(
#41500
1!
12
13
0(
1|
0}
1P
0O
0N
15
1Q
0P
1O
0Q
#42000
0!
02
03
1(
#42500
1!
12
13
0(
1}
1N
05
1P
0O
1Q
#43000
0!
02
03
1(
#43500
1!
12
13
0(
1{
0|
0}
1R
0Q
0P
1O
0N
15
1T
0S
0R
1Q
0O
1U
0T
1S
0U
#44000
0!
02
03
1(
#44500
1!
12
13
0(
1}
1N
05
1O
#45000
0!
02
03
1(
#45500
1!
12
13
0(
1|
0}
1P
0O
0N
15
1R
0Q
0P
1O
1T
0S
0R
1Q
1U
0T
1S
0U
#46000
0!
02
03
1(
#46500
1!
12
13
0(
1}
1N
05
1P
0O
1R
0Q
1T
0S
1U
#47000
0!
02
03
1(
#47500
1!
12
13
0(
1y
0z
0{
0|
0}
1V
0U
0T
1S
0R
1Q
0P
1O
0N
15
1X
0W
0V
1U
0S
0Q
0O
1Y
0X
1W
0Y
#48000
0!
02
03
1(
#48500
1!
12
13
0(
1}
1N
05
1O
#49000
0!
02
03
1(
#49500
1!
12
13
0(
1|
0}
1P
0O
0N
15
1Q
0P
1O
0Q
#50000
0!
02
03
1(
#50500
1!
12
13
0(
1}
1N
05
1P
0O
1Q
#51000
0!
02
03
1(
#51500
1!
12
13
0(
1{
0|
0}
1R
0Q
0P
1O
0N
15
1S
0R
1Q
0O
0S
#52000
0!
02
03
1(
#52500
1!
12
13
0(
1}
1N
05
1O
#53000
0!
02
03
1(
#53500
1!
12
13
0(
1|
0}
1P
0O
0N
15
1R
0Q
0P
1O
1S
0R
1Q
0S
#54000
0!
02
03
1(
#54500
1!
12
13
0(
1}
1N
05
1P
0O
1R
0Q
1S
#55000
0!
02
03
1(
#55500
1!
12
13
0(
1z
0{
0|
0}
1T
0S
0R
1Q
0P
1O
0N
15
1V
0U
0T
1S
0Q
0O
1X
0W
0V
1U
1Y
0X
1W
0Y
#56000
0!
02
03
1(
#56500
1!
12
13
0(
1}
1N
05
1O
#57000
0!
02
03
1(
#57500
1!
12
13
0(
1|
0}
1P
0O
0N
15
1Q
0P
1O
0Q
#58000
0!
02
03
1(
#58500
1!
12
13
0(
1}
1N
05
1P
0O
1Q
#59000
0!
02
03
1(
#59500
1!
12
13
0(
1{
0|
0}
1R
0Q
0P
1O
0N
15
1T
0S
0R
1Q
0O
1V
0U
0T
1S
1X
0W
0V
1U
1Y
0X
1W
0Y
#60000
0!
02
03
1(
#60500
1!
12
13
0(
1}
1N
05
1O
#61000
0!
02
03
1(
#61500
1!
12
13
0(
1|
0}
1P
0O
0N
15
1R
0Q
0P
1O
1T
0S
0R
1Q
1V
0U
0T
1S
1X
0W
0V
1U
1Y
0X
1W
0Y
#62000
0!
02
03
1(
#62500
1!
12
13
0(
1}
1N
05
1?
1P
0O
1R
0Q
1T
0S
1V
0U
1X
0W
1Y
#63000
0!
02
03
1(
#63500
1!
12
13
0(
1w
0x
0y
0z
0{
0|
0}
1Z
0Y
0X
1W
0?
0V
1U
0T
1S
0R
1Q
0P
1O
0N
15
1[
0Z
1Y
0W
0U
0S
0Q
0O
0[
#64000
0!
02
03
1(
#64500
1!
12
13
0(
1}
1N
05
1O
#65000
0!
02
03
1(
#65500
1!
12
13
0(
1|
0}
1P
0O
0N
15
1Q
0P
1O
0Q
#66000
0!
02
03
1(
#66500
1!
12
13
0(
1}
1N
05
1P
0O
1Q
#67000
0!
02
03
1(
#67500
1!
12
13
0(
1{
0|
0}
1R
0Q
0P
1O
0N
15
1S
0R
1Q
0O
0S
#68000
0!
02
03
1(
#68500
1!
12
13
0(
1}
1N
05
1O
#69000
0!
02
03
1(
#69500
1!
12
13
0(
1|
0}
1P
0O
0N
15
1R
0Q
0P
1O
1S
0R
1Q
0S
#70000
0!
02
03
1(
#70500
1!
12
13
0(
1}
1N
05
1P
0O
1R
0Q
1S
#71000
0!
02
03
1(
#71500
1!
12
13
0(
1z
0{
0|
0}
1T
0S
0R
1Q
0P
1O
0N
15
1U
0T
1S
0Q
0O
0U
#72000
0!
02
03
1(
#72500
1!
12
13
0(
1}
1N
05
1O
#73000
0!
02
03
1(
#73500
1!
12
13
0(
1|
0}
1P
0O
0N
15
1Q
0P
1O
0Q
#74000
0!
02
03
1(
#74500
1!
12
13
0(
1}
1N
05
1P
0O
1Q
#75000
0!
02
03
1(
#75500
1!
12
13
0(
1{
0|
0}
1R
0Q
0P
1O
0N
15
1T
0S
0R
1Q
0O
1U
0T
1S
0U
#76000
0!
02
03
1(
#76500
1!
12
13
0(
1}
1N
05
1O
#77000
0!
02
03
1(
#77500
1!
12
13
0(
1|
0}
1P
0O
0N
15
1R
0Q
0P
1O
1T
0S
0R
1Q
1U
0T
1S
0U
#78000
0!
02
03
1(
#78500
1!
12
13
0(
1}
1N
05
1P
0O
1R
0Q
1T
0S
1U
#79000
0!
02
03
1(
#79500
1!
12
13
0(
1y
0z
0{
0|
0}
1V
0U
0T
1S
0R
1Q
0P
1O
0N
15
1W
0V
1U
0S
0Q
0O
0W
#80000
0!
02
03
1(
#80500
1!
12
13
0(
1}
1N
05
1O
#81000
0!
02
03
1(
#81500
1!
12
13
0(
1|
0}
1P
0O
0N
15
1Q
0P
1O
0Q
#82000
0!
02
03
1(
#82500
1!
12
13
0(
1}
1N
05
1P
0O
1Q
#83000
0!
02
03
1(
#83500
1!
12
13
0(
1{
0|
0}
1R
0Q
0P
1O
0N
15
1S
0R
1Q
0O
0S
#84000
0!
02
03
1(
#84500
1!
12
13
0(
1}
1N
05
1O
#85000
0!
02
03
1(
#85500
1!
12
13
0(
1|
0}
1P
0O
0N
15
1R
0Q
0P
1O
1S
0R
1Q
0S
#86000
0!
02
03
1(
#86500
1!
12
13
0(
1}
1N
05
1P
0O
1R
0Q
1S
#87000
0!
02
03
1(
#87500
1!
12
13
0(
1z
0{
0|
0}
1T
0S
0R
1Q
0P
1O
0N
15
1V
0U
0T
1S
0Q
0O
1W
0V
1U
0W
#88000
0!
02
03
1(
#88500
1!
12
13
0(
1}
1N
05
1O
#89000
0!
02
03
1(
#89500
1!
12
13
0(
1|
0}
1P
0O
0N
15
1Q
0P
1O
0Q
#90000
0!
02
03
1(
#90500
1!
12
13
0(
1}
1N
05
1P
0O
1Q
#91000
0!
02
03
1(
#91500
1!
12
13
0(
1{
0|
0}
1R
0Q
0P
1O
0N
15
1T
0S
0R
1Q
0O
1V
0U
0T
1S
1W
0V
1U
0W
#92000
0!
02
03
1(
#92500
1!
12
13
0(
1}
1N
05
1O
#93000
0!
02
03
1(
#93500
1!
12
13
0(
1|
0}
1P
0O
0N
15
1R
0Q
0P
1O
1T
0S
0R
1Q
1V
0U
0T
1S
1W
0V
1U
0W
#94000
0!
02
03
1(
#94500
1!
12
13
0(
1}
1N
05
1?
1P
0O
1R
0Q
1T
0S
1V
0U
1W
#95000
0!
02
03
1(
#95500
1!
12
13
0(
1x
0y
0z
0{
0|
0}
1X
0W
0?
0V
1U
0T
1S
0R
1Q
0P
1O
0N
15
1Z
0Y
0X
1W
0U
0S
0Q
0O
1[
0Z
1Y
0[
#96000
0!
02
03
1(
#96500
1!
12
13
0(
1}
1N
05
1O
#97000
0!
02
03
1(
#97500
1!
12
13
0(
1|
0}
1P
0O
0N
15
1Q
0P
1O
0Q
#98000
0!
02
03
1(
#98500
1!
12
13
0(
1}
1N
05
1P
0O
1Q
#99000
0!
02
03
1(
#99500
1!
12
13
0(
1{
0|
0}
1R
0Q
0P
1O
0N
15
1S
0R
1Q
0O
0S
#100000
0!
02
03
1(
#100500
1!
12
13
0(
1}
1N
05
1O
#101000
0!
02
03
1(
#101500
1!
12
13
0(
1|
0}
1P
0O
0N
15
1R
0Q
0P
1O
1S
0R
1Q
0S
#102000
0!
02
03
1(
#102500
1!
12
13
0(
1}
1N
05
1P
0O
1R
0Q
1S
#103000
0!
02
03
1(
#103500
1!
12
13
0(
1z
0{
0|
0}
1T
0S
0R
1Q
0P
1O
0N
15
1U
0T
1S
0Q
0O
0U
#104000
0!
02
03
1(
#104500
1!
12
13
0(
1}
1N
05
1O
#105000
0!
02
03
1(
#105500
1!
12
13
0(
1|
0}
1P
0O
0N
15
1Q
0P
1O
0Q
#106000
0!
02
03
1(
#106500
1!
12
13
0(
1}
1N
05
1P
0O
1Q
#107000
0!
02
03
1(
#107500
1!
12
13
0(
1{
0|
0}
1R
0Q
0P
1O
0N
15
1T
0S
0R
1Q
0O
1U
0T
1S
0U
#108000
0!
02
03
1(
#108500
1!
12
13
0(
1}
1N
05
1O
#109000
0!
02
03
1(
#109500
1!
12
13
0(
1|
0}
1P
0O
0N
15
1R
0Q
0P
1O
1T
0S
0R
1Q
1U
0T
1S
0U
#110000
0!
02
03
1(
#110500
1!
12
13
0(
1}
1N
05
1P
0O
1R
0Q
1T
0S
1U
#111000
0!
02
03
1(
#111500
1!
12
13
0(
1y
0z
0{
0|
0}
1V
0U
0T
1S
0R
1Q
0P
1O
0N
15
1X
0W
0V
1U
0S
0Q
0O
1Z
0Y
0X
1W
1[
0Z
1Y
0[
#112000
0!
02
03
1(
#112500
1!
12
13
0(
1}
1N
05
1O
#113000
0!
02
03
1(
#113500
1!
12
13
0(
1|
0}
1P
0O
0N
15
1Q
0P
1O
0Q
#114000
0!
02
03
1(
#114500
1!
12
13
0(
1}
1N
05
1P
0O
1Q
#115000
0!
02
03
1(
#115500
1!
12
13
0(
1{
0|
0}
1R
0Q
0P
1O
0N
15
1S
0R
1Q
0O
0S
#116000
0!
02
03
1(
#116500
1!
12
13
0(
1}
1N
05
1O
#117000
0!
02
03
1(
#117500
1!
12
13
0(
1|
0}
1P
0O
0N
15
1R
0Q
0P
1O
1S
0R
1Q
0S
#118000
0!
02
03
1(
#118500
1!
12
13
0(
1}
1N
05
1P
0O
1R
0Q
1S
#119000
0!
02
03
1(
#119500
1!
12
13
0(
1z
0{
0|
0}
1T
0S
0R
1Q
0P
1O
0N
15
1V
0U
0T
1S
0Q
0O
1X
0W
0V
1U
1Z
0Y
0X
1W
1[
0Z
1Y
0[
#120000
0!
02
03
1(
#120500
1!
12
13
0(
1}
1N
05
1O
#121000
0!
02
03
1(
#121500
1!
12
13
0(
1|
0}
1P
0O
0N
15
1Q
0P
1O
0Q
#122000
0!
02
03
1(
#122500
1!
12
13
0(
1}
1N
05
1P
0O
1Q
#123000
0!
02
03
1(
#123500
1!
12
13
0(
1{
0|
0}
1A
1R
0Q
0P
1O
0N
15
1T
0S
0R
1Q
0O
0B
1V
0U
0T
1S
1X
0W
0V
1U
1Z
0Y
0X
1W
1[
0Z
1Y
0[
#124000
0!
02
03
1(
#124500
1!
12
13
0(
1}
1N
05
1O
#125000
0!
02
03
1(
#125500
1!
12
13
0(
1|
0}
1P
0O
0N
15
1R
0Q
0P
1O
1T
0S
0R
1Q
1V
0U
0T
1S
1X
0W
0V
1U
1Z
0Y
0X
1W
1[
0Z
1Y
0[
#126000
0!
02
03
1(
#126500
1!
12
13
0(
1}
1N
05
1?
1P
0O
1R
0Q
1T
0S
1V
0U
1X
0W
1Z
0Y
1[
#127000
0!
02
03
1(
#127500
1!
12
13
0(
1v
0w
0x
0y
0z
0{
0|
0}
1\
0[
0b
0A
0Z
1Y
0X
1W
0?
0V
1U
0T
1S
0R
1Q
0P
1O
0N
15
1]
0\
1[
0Y
0W
0U
0S
0Q
0O
0]
#128000
0!
02
03
1(
#128500
1!
12
13
0(
1}
1N
05
1O
#129000
0!
02
03
1(
#129500
1!
12
13
0(
1|
0}
1P
0O
0N
15
1Q
0P
1O
0Q
#130000
0!
02
03
1(
#130500
1!
12
13
0(
1}
1N
05
1P
0O
1Q
#131000
0!
02
03
1(
#131500
1!
12
13
0(
1{
0|
0}
1R
0Q
0P
1O
0N
15
1S
0R
1Q
0O
0S
#132000
0!
02
03
1(
#132500
1!
12
13
0(
1}
1N
05
1O
#133000
0!
02
03
1(
#133500
1!
12
13
0(
1|
0}
1P
0O
0N
15
1R
0Q
0P
1O
1S
0R
1Q
0S
#134000
0!
02
03
1(
#134500
1!
12
13
0(
1}
1N
05
1P
0O
1R
0Q
1S
#135000
0!
02
03
1(
#135500
1!
12
13
0(
1z
0{
0|
0}
1T
0S
0R
1Q
0P
1O
0N
15
1U
0T
1S
0Q
0O
0U
#136000
0!
02
03
1(
#136500
1!
12
13
0(
1}
1N
05
1O
#137000
0!
02
03
1(
#137500
1!
12
13
0(
1|
0}
1P
0O
0N
15
1Q
0P
1O
0Q
#138000
0!
02
03
1(
#138500
1!
12
13
0(
1}
1N
05
1P
0O
1Q
#139000
0!
02
03
1(
#139500
1!
12
13
0(
1{
0|
0}
1R
0Q
0P
1O
0N
15
1T
0S
0R
1Q
0O
1U
0T
1S
0U
#140000
0!
02
03
1(
#140500
1!
12
13
0(
1}
1N
05
1O
#141000
0!
02
03
1(
#141500
1!
12
13
0(
1|
0}
1P
0O
0N
15
1R
0Q
0P
1O
1T
0S
0R
1Q
1U
0T
1S
0U
#142000
0!
02
03
1(
#142500
1!
12
13
0(
1}
1N
05
1P
0O
1R
0Q
1T
0S
1U
#143000
0!
02
03
1(
#143500
1!
12
13
0(
1y
0z
0{
0|
0}
1V
0U
0T
1S
0R
1Q
0P
1O
0N
15
1W
0V
1U
0S
0Q
0O
0W
#144000
0!
02
03
1(
#144500
1!
12
13
0(
1}
1N
05
1O
#145000
0!
02
03
1(
#145500
1!
12
13
0(
1|
0}
1P
0O
0N
15
1Q
0P
1O
0Q
#146000
0!
02
03
1(
#146500
1!
12
13
0(
1}
1N
05
1P
0O
1Q
#147000
0!
02
03
1(
#147500
1!
12
13
0(
1{
0|
0}
1R
0Q
0P
1O
0N
15
1S
0R
1Q
0O
0S
#148000
0!
02
03
1(
#148500
1!
12
13
0(
1}
1N
05
1O
#149000
0!
02
03
1(
#149500
1!
12
13
0(
1|
0}
1P
0O
0N
15
1R
0Q
0P
1O
1S
0R
1Q
0S
#150000
0!
02
03
1(
#150500
1!
12
13
0(
1}
1N
05
1P
0O
1R
0Q
1S
#151000
0!
02
03
1(
#151500
1!
12
13
0(
1z
0{
0|
0}
1T
0S
0R
1Q
0P
1O
0N
15
1V
0U
0T
1S
0Q
0O
1W
0V
1U
0W
#152000
0!
02
03
1(
#152500
1!
12
13
0(
1}
1N
05
1O
#153000
0!
02
03
1(
#153500
1!
12
13
0(
1|
0}
1P
0O
0N
15
1Q
0P
1O
0Q
#154000
0!
02
03
1(
#154500
1!
12
13
0(
1}
1N
05
1P
0O
1Q
#155000
0!
02
03
1(
#155500
1!
12
13
0(
1{
0|
0}
1R
0Q
0P
1O
0N
15
1T
0S
0R
1Q
0O
1V
0U
0T
1S
1W
0V
1U
0W
#156000
0!
02
03
1(
#156500
1!
12
13
0(
1}
1N
05
1O
#157000
0!
02
03
1(
#157500
1!
12
13
0(
1|
0}
1P
0O
0N
15
1R
0Q
0P
1O
1T
0S
0R
1Q
1V
0U
0T
1S
1W
0V
1U
0W
#158000
0!
02
03
1(
#158500
1!
12
13
0(
1}
1N
05
1?
1P
0O
1R
0Q
1T
0S
1V
0U
1W
#159000
0!
02
03
1(
#159500
1!
12
13
0(
1x
0y
0z
0{
0|
0}
1G
1X
0W
0?
0V
1U
0T
1S
0R
1Q
0P
1O
0N
15
1Y
0X
1W
0U
0S
0Q
0O
0Y
#160000
0!
02
03
1(
#160500
1!
12
13
0(
1}
1N
05
1O
#161000
0!
02
03
1(
#161500
1!
12
13
0(
1|
0}
1P
0O
0N
15
1Q
0P
1O
0Q
#162000
0!
02
03
1(
#162500
1!
12
13
0(
1}
1N
05
1P
0O
1Q
#163000
0!
02
03
1(
#163500
1!
12
13
0(
1{
0|
0}
0G
1R
0Q
0P
1O
0N
15
1S
0R
1Q
0O
0S
#164000
0!
02
03
1(
#164500
1!
12
13
0(
1}
1N
05
1O
#165000
0!
02
03
1(
#165500
1!
12
13
0(
1|
0}
1P
0O
0N
15
1R
0Q
0P
1O
1S
0R
1Q
0S
#166000
0!
02
03
1(
#166500
1!
12
13
0(
1}
1N
05
1P
0O
1R
0Q
1S
#167000
0!
02
03
1(
#167500
1!
12
13
0(
1z
0{
0|
0}
1T
0S
0R
1Q
0P
1O
0N
15
1U
0T
1S
0Q
0O
0U
#168000
0!
02
03
1(
#168500
1!
12
13
0(
1}
1N
05
1O
#169000
0!
02
03
1(
#169500
1!
12
13
0(
1|
0}
1P
0O
0N
15
1Q
0P
1O
0Q
#170000
0!
02
03
1(
#170500
1!
12
13
0(
1}
1N
05
1P
0O
1Q
#171000
0!
02
03
1(
#171500
1!
12
13
0(
1{
0|
0}
1R
0Q
0P
1O
0N
15
1T
0S
0R
1Q
0O
1U
0T
1S
0U
#172000
0!
02
03
1(
#172500
1!
12
13
0(
1}
1N
05
1O
#173000
0!
02
03
1(
#173500
1!
12
13
0(
1|
0}
1P
0O
0N
15
1R
0Q
0P
1O
1T
0S
0R
1Q
1U
0T
1S
0U
#174000
0!
02
03
1(
#174500
1!
12
13
0(
1}
1N
05
1P
0O
1R
0Q
1T
0S
1U
#175000
0!
02
03
1(
#175500
1!
12
13
0(
1y
0z
0{
0|
0}
1V
0U
0T
1S
0R
1Q
0P
1O
0N
15
1X
0W
0V
1U
0S
0Q
0O
1Y
0X
1W
0Y
#176000
0!
02
03
1(
#176500
1!
12
13
0(
1}
1N
05
1O
#177000
0!
02
03
1(
#177500
1!
12
13
0(
1|
0}
1P
0O
0N
15
1Q
0P
1O
0Q
#178000
0!
02
03
1(
#178500
1!
12
13
0(
1}
1N
05
1P
0O
1Q
#179000
0!
02
03
1(
#179500
1!
12
13
0(
1{
0|
0}
1R
0Q
0P
1O
0N
15
1S
0R
1Q
0O
0S
#180000
0!
02
03
1(
#180500
1!
12
13
0(
1}
1N
05
1O
#181000
0!
02
03
1(
#181500
1!
12
13
0(
1|
0}
1P
0O
0N
15
1R
0Q
0P
1O
1S
0R
1Q
0S
#182000
0!
02
03
1(
#182500
1!
12
13
0(
1}
1N
05
1P
0O
1R
0Q
1S
#183000
0!
02
03
1(
#183500
1!
12
13
0(
1z
0{
0|
0}
1T
0S
0R
1Q
0P
1O
0N
15
1V
0U
0T
1S
0Q
0O
1X
0W
0V
1U
1Y
0X
1W
0Y
#184000
0!
02
03
1(
#184500
1!
12
13
0(
1}
1N
05
1O
#185000
0!
02
03
1(
#185500
1!
12
13
0(
1|
0}
1P
0O
0N
15
1Q
0P
1O
0Q
#186000
0!
02
03
1(
#186500
1!
12
13
0(
1}
1N
05
1P
0O
1Q
#187000
0!
02
03
1(
#187500
1!
12
13
0(
1{
0|
0}
1R
0Q
0P
1O
0N
15
1T
0S
0R
1Q
0O
1V
0U
0T
1S
1X
0W
0V
1U
1Y
0X
1W
0Y
#188000
0!
02
03
1(
#188500
1!
12
13
0(
1}
1N
05
1O
#189000
0!
02
03
1(
#189500
1!
12
13
0(
1|
0}
1P
0O
0N
15
1R
0Q
0P
1O
1T
0S
0R
1Q
1V
0U
0T
1S
1X
0W
0V
1U
1Y
0X
1W
0Y
#190000
0!
02
03
1(
#190500
1!
12
13
0(
1}
1N
05
1?
1P
0O
1R
0Q
1T
0S
1V
0U
1X
0W
1Y
#191000
0!
02
03
1(
#191500
1!
12
13
0(
1w
0x
0y
0z
0{
0|
0}
1Z
0Y
0X
1W
0?
0V
1U
0T
1S
0R
1Q
0P
1O
0N
15
1\
0[
0Z
1Y
0W
0U
0S
0Q
0O
1]
0\
1[
0]
#192000
0!
02
03
1(
#192500
1!
12
13
0(
1}
1N
05
1O
#193000
0!
02
03
1(
#193500
1!
12
13
0(
1|
0}
1P
0O
0N
15
1Q
0P
1O
0Q
#194000
0!
02
03
1(
#194500
1!
12
13
0(
1}
1N
05
1P
0O
1Q
#195000
0!
02
03
1(
#195500
1!
12
13
0(
1{
0|
0}
1R
0Q
0P
1O
0N
15
1S
0R
1Q
0O
0S
#196000
0!
02
03
1(
#196500
1!
12
13
0(
1}
1N
05
1O
#197000
0!
02
03
1(
#197500
1!
12
13
0(
1|
0}
1P
0O
0N
15
1R
0Q
0P
1O
1S
0R
1Q
0S
#198000
0!
02
03
1(
#198500
1!
12
13
0(
1}
1N
05
1P
0O
1R
0Q
1S
#199000
0!
02
03
1(
#199500
1!
12
13
0(
1z
0{
0|
0}
1T
0S
0R
1Q
0P
1O
0N
15
1U
0T
1S
0Q
0O
0U
#200000
0!
02
03
1(
